…
4.  ¿Existe una concentración o estacionalidad en la cantidad de
    llamadas?

Para el mes de febrero existe poca demanda, en marzo se encuentra cierta
concentración de llamadas al igual que en octubre. Para los meses de
junio, julio y agosto se observa cierta estacionalidad.

    ## # A tibble: 84 × 3
    ## # Groups:   fecha_creación [12]
    ##    fecha_creación cod                           cant
    ##             <dbl> <chr>                        <int>
    ##  1              1 0                             1361
    ##  2              1 Actualización de Información  1627
    ##  3              1 Cancelaciones                 3979
    ##  4              1 Cobros                         688
    ##  5              1 Consultas                    10592
    ##  6              1 Empresarial                   3049
    ##  7              1 Otros/Varios                  1129
    ##  8              2 0                             1236
    ##  9              2 Actualización de Información  1493
    ## 10              2 Cancelaciones                 3572
    ## # … with 74 more rows
…
Los días 10 y 7 son los más ocupados durante el mes. A fin de mes se
registro una menor cantidad de llamadas. Existe cierta concentración en
los primero 10 días del mes y una decaida durante los últimos 5 días.

    ## # A tibble: 217 × 3
    ## # Groups:   fecha_creación [31]
    ##    fecha_creación cod                           cant
    ##             <int> <chr>                        <int>
    ##  1              1 0                              495
    ##  2              1 Actualización de Información   596
    ##  3              1 Cancelaciones                 1527
    ##  4              1 Cobros                         268
    ##  5              1 Consultas                     4041
    ##  6              1 Empresarial                   1099
    ##  7              1 Otros/Varios                   384
    ##  8              2 0                              498
    ##  9              2 Actualización de Información   604
    ## 10              2 Cancelaciones                 1606
    ## # … with 207 more rows
…
